%YAML 1.1
%TAG !u! tag:unity3d.com,2011:
--- !u!114 &11400000
MonoBehaviour:
  m_ObjectHideFlags: 0
  m_CorrespondingSourceObject: {fileID: 0}
  m_PrefabInstance: {fileID: 0}
  m_PrefabAsset: {fileID: 0}
  m_GameObject: {fileID: 0}
  m_Enabled: 1
  m_EditorHideFlags: 0
  m_Script: {fileID: 11500000, guid: 306f63f6be25057498bc86e3d86663f1, type: 3}
  m_Name: Enemy Patrol 2
  m_EditorClassIdentifier: 
  animator: {fileID: 9100000, guid: f3da4c367ce198c4a8b1ba9184044127, type: 2}
  color: {r: 1, g: 0.13679248, b: 0.9314127, a: 1}
  maxHP: 6
  moveSpeed: 2
  damage: 4
  rangeDetection: 10
  rangeAttack: 7
