%YAML 1.1
%TAG !u! tag:unity3d.com,2011:
--- !u!78 &1
TagManager:
  serializedVersion: 2
  tags:
  - Bullet
  layers:
  - Default
  - TransparentFX
  - Ignore Raycast
  - Range
  - Water
  - UI
  - Alies Hurtbox
  - Alies Hitbox
  - Enemy Hurtbox
  - Enemy Hitbox
  - 
  - 
  - 
  - 
  - 
  - 
  - 
  - 
  - 
  - 
  - 
  - 
  - 
  - 
  - 
  - 
  - 
  - 
  - 
  - 
  - 
  - 
  m_SortingLayers:
  - name: Default
    uniqueID: 0
    locked: 0
